{
  "id" : "05027AA4-B11D-465A-8FC4-2A085FD6AEE3",
  "phone" : "+381189307596",
  "city" : "Sogliano Cavour",
  "emails" : [
    "hope.payne@gmail.com",
    "hpayne36@yahoo.com"
  ],
  "zip" : "61434",
  "firstname" : "Hope",
  "lastname" : "Payne",
  "state" : "Egypt",
  "street" : "Ap #522-9408 Scelerisque, Street"
}