{
  "id" : "1DB7BF79-1F0E-407F-BCAA-84DAA6AD9DBF",
  "phone" : "+381175852818",
  "city" : "Treppo Carnico",
  "emails" : [
    "adria.herrera@gmail.com",
    "aherrera1@yahoo.com"
  ],
  "zip" : "41459",
  "firstname" : "Adria",
  "lastname" : "Herrera",
  "state" : "Martinique",
  "street" : "9162 Gravida. St."
}