{
  "id" : "26C7D878-6D73-4A6B-8863-5760F7E8B2F2",
  "phone" : "+381335181676",
  "city" : "Keiem",
  "emails" : [
    "roanna.mason@gmail.com",
    "rmason45@yahoo.com"
  ],
  "zip" : "94753",
  "firstname" : "Roanna",
  "lastname" : "Mason",
  "state" : "China",
  "street" : "204-6145 Risus. Rd."
}