{
  "id" : "548F4F5F-F045-4319-823C-BBBAF6E5FAB1",
  "phone" : "+381897751930",
  "city" : "Malartic",
  "emails" : [
    "ulla.ray@gmail.com",
    "uray18@yahoo.com"
  ],
  "zip" : "11605",
  "firstname" : "Ulla",
  "lastname" : "Ray",
  "state" : "Malawi",
  "street" : "P.O. Box 151, 6250 Nec, Rd."
}