{
  "id" : "92B66CFE-2FCE-443D-8763-D964658DDBE5",
  "phone" : "+381629316806",
  "city" : "Saint-Quentin",
  "emails" : [
    "castor.mcdonald@gmail.com",
    "cmcdonald79@yahoo.com"
  ],
  "zip" : "23922",
  "firstname" : "Castor",
  "lastname" : "Mcdonald",
  "state" : "Cameroon",
  "street" : "5558 Nunc Street"
}