{
  "id" : "AD02AADE-E381-47E0-BADE-32728016C9ED",
  "phone" : "+381591730029",
  "city" : "Thorold",
  "emails" : [
    "alana.bird@gmail.com",
    "abird56@yahoo.com"
  ],
  "zip" : "97245",
  "firstname" : "Alana",
  "lastname" : "Bird",
  "state" : "Brunei",
  "street" : "Ap #953-3855 Sed Avenue"
}