{
  "id" : "BCA518DE-0BF2-4505-AFC6-EE1FAD0259C4",
  "phone" : "+381024365503",
  "city" : "Stendal",
  "emails" : [
    "molly.levine@gmail.com",
    "mlevine71@yahoo.com"
  ],
  "zip" : "44716",
  "firstname" : "Molly",
  "lastname" : "Levine",
  "state" : "Åland Islands",
  "street" : "P.O. Box 581, 5620 Eget, St."
}