{
  "id" : "C33670A9-4820-4ADF-90F0-D7AA7912D1E1",
  "phone" : "+381786547011",
  "city" : "Modakeke",
  "emails" : [
    "florence.higgins@gmail.com",
    "fhiggins18@yahoo.com"
  ],
  "zip" : "11372",
  "firstname" : "Florence",
  "lastname" : "Higgins",
  "state" : "Western Sahara",
  "street" : "P.O. Box 409, 3187 Ac Rd."
}