{
  "id" : "D7289890-B5CA-4274-B1C0-0D1C2ECBFA3C",
  "phone" : "",
  "city" : "Delianuova",
  "emails" : [
    "amaya.allen@gmail.com",
    "aallen12@yahoo.com"
  ],
  "zip" : "73839",
  "firstname" : "Amaya",
  "lastname" : "Allen",
  "state" : "Anguilla",
  "street" : "604-4329 Blandit St."
}